<?xml version="1.0" encoding="UTF-8"?>
<session version="1.0">
<refactoring comment="Rename type &apos;FusekiConnector&apos; to &apos;Ex_GIM&apos;&#x0D;&#x0A;- Original project: &apos;gim-2020&apos;&#x0D;&#x0A;- Original element: &apos;FusekiConnector&apos;&#x0D;&#x0A;- Renamed element: &apos;Ex_GIM&apos;&#x0D;&#x0A;- Update references to refactored element&#x0D;&#x0A;- Update textual occurrences in comments and strings" description="Rename type &apos;FusekiConnector&apos;" flags="589830" id="org.eclipse.jdt.ui.rename.type" input="/src\/main\/java=/optional=/true=/=/maven.pomderived=/true=/&lt;{FusekiConnector.java[FusekiConnector" matchStrategy="1" name="Ex_GIM" qualified="false" references="true" similarDeclarations="false" stamp="1642861251836" textual="false" version="1.0"/>
</session>